…
# FT-ICR-MS

## total peaks

total peak counts were influenced by:

  - not Homogenization
  - Suction (50 \> 1.5 kPa)
  - Moisture (drought \> fm)
  - not Wetting
  - Amendments (declines in N)

<!-- end list -->

    #> # A tibble: 173 x 9
    #>     Core SampleAssignment class counts Suction Moisture Wetting Amendments
    #>    <int> <chr>            <chr>  <int>   <dbl> <fct>    <fct>   <fct>     
    #>  1     1 1.5-fm-precip-c… total   1959     1.5 fm       precip  control   
    #>  2     1 1.5-fm-precip-c… total    330     1.5 fm       precip  control   
    #>  3     1 50-fm-precip-co… total    501    50   fm       precip  control   
    #>  4     3 1.5-fm-precip-C… total    153     1.5 fm       precip  C         
    #>  5     3 1.5-fm-precip-C… total    760     1.5 fm       precip  C         
    #>  6     3 50-fm-precip-C-… total   3547    50   fm       precip  C         
    #>  7     3 50-fm-precip-C-… total   3477    50   fm       precip  C         
    #>  8     4 1.5-drought-gro… total    947     1.5 drought  groundw N         
    #>  9     4 1.5-drought-gro… total    151     1.5 drought  groundw N         
    #> 10     4 50-drought-grou… total    365    50   drought  groundw N         
    #> # … with 163 more rows, and 1 more variable: Homogenization <fct>
…
